%YAML 1.1
%TAG !u! tag:unity3d.com,2011:
--- !u!74 &7400000
AnimationClip:
  m_ObjectHideFlags: 0
  m_PrefabParentObject: {fileID: 0}
  m_PrefabInternal: {fileID: 0}
  m_Name: Train_appr
  serializedVersion: 6
  m_Legacy: 0
  m_Compressed: 0
  m_UseHighQualityCurve: 1
  m_RotationCurves: []
  m_CompressedRotationCurves: []
  m_EulerCurves: []
  m_PositionCurves:
  - curve:
      serializedVersion: 2
      m_Curve:
      - serializedVersion: 2
        time: 0
        value: {x: -48.04, y: -7.09, z: -78.96085}
        inSlope: {x: 0, y: 0, z: 10.660049}
        outSlope: {x: 0, y: 0, z: 10.660049}
        tangentMode: 0
      - serializedVersion: 2
        time: 11.233334
        value: {x: -48.04, y: -7.09, z: 40.787033}
        inSlope: {x: 0, y: 0, z: 6.6300573}
        outSlope: {x: 0, y: 0, z: 6.6300573}
        tangentMode: 0
      - serializedVersion: 2
        time: 15.3
        value: {x: -48.04, y: -7.09, z: 51.360634}
        inSlope: {x: 0, y: 0, z: 1.7121948}
        outSlope: {x: 0, y: 0, z: 1.7121948}
        tangentMode: 0
      - serializedVersion: 2
        time: 19.933332
        value: {x: -48.04, y: -7.09, z: 55.18}
        inSlope: {x: 0, y: 0, z: 0.41216195}
        outSlope: {x: 0, y: 0, z: 0.41216195}
        tangentMode: 0
      - serializedVersion: 2
        time: 20.183332
        value: {x: -48.04, y: -7.09, z: 55.18}
        inSlope: {x: 0, y: 0, z: 0}
        outSlope: {x: 0, y: 0, z: 0}
        tangentMode: 0
      m_PreInfinity: 2
      m_PostInfinity: 2
      m_RotationOrder: 4
    path: 
  m_ScaleCurves: []
  m_FloatCurves: []
  m_PPtrCurves: []
  m_SampleRate: 60
  m_WrapMode: 0
  m_Bounds:
    m_Center: {x: 0, y: 0, z: 0}
    m_Extent: {x: 0, y: 0, z: 0}
  m_ClipBindingConstant:
    genericBindings:
    - serializedVersion: 2
      path: 0
      attribute: 1
      script: {fileID: 0}
      typeID: 4
      customType: 0
      isPPtrCurve: 0
    pptrCurveMapping: []
  m_AnimationClipSettings:
    serializedVersion: 2
    m_AdditiveReferencePoseClip: {fileID: 0}
    m_AdditiveReferencePoseTime: 0
    m_StartTime: 0
    m_StopTime: 20.183332
    m_OrientationOffsetY: 0
    m_Level: 0
    m_CycleOffset: 0
    m_HasAdditiveReferencePose: 0
    m_LoopTime: 0
    m_LoopBlend: 0
    m_LoopBlendOrientation: 0
    m_LoopBlendPositionY: 0
    m_LoopBlendPositionXZ: 0
    m_KeepOriginalOrientation: 0
    m_KeepOriginalPositionY: 1
    m_KeepOriginalPositionXZ: 0
    m_HeightFromFeet: 0
    m_Mirror: 0
  m_EditorCurves:
  - curve:
      serializedVersion: 2
      m_Curve:
      - serializedVersion: 2
        time: 0
        value: -48.04
        inSlope: 0
        outSlope: 0
        tangentMode: 34
      - serializedVersion: 2
        time: 19.933332
        value: -48.04
        inSlope: 0
        outSlope: 0
        tangentMode: 34
      - serializedVersion: 2
        time: 20.183332
        value: -48.04
        inSlope: 0
        outSlope: 0
        tangentMode: 34
      m_PreInfinity: 2
      m_PostInfinity: 2
      m_RotationOrder: 4
    attribute: m_LocalPosition.x
    path: 
    classID: 4
    script: {fileID: 0}
  - curve:
      serializedVersion: 2
      m_Curve:
      - serializedVersion: 2
        time: 0
        value: -7.09
        inSlope: 0
        outSlope: 0
        tangentMode: 34
      - serializedVersion: 2
        time: 19.933332
        value: -7.09
        inSlope: 0
        outSlope: 0
        tangentMode: 34
      - serializedVersion: 2
        time: 20.183332
        value: -7.09
        inSlope: 0
        outSlope: 0
        tangentMode: 34
      m_PreInfinity: 2
      m_PostInfinity: 2
      m_RotationOrder: 4
    attribute: m_LocalPosition.y
    path: 
    classID: 4
    script: {fileID: 0}
  - curve:
      serializedVersion: 2
      m_Curve:
      - serializedVersion: 2
        time: 0
        value: -78.96085
        inSlope: 10.660049
        outSlope: 10.660049
        tangentMode: 34
      - serializedVersion: 2
        time: 11.233334
        value: 40.787033
        inSlope: 6.6300573
        outSlope: 6.6300573
        tangentMode: 34
      - serializedVersion: 2
        time: 15.3
        value: 51.360634
        inSlope: 1.7121948
        outSlope: 1.7121948
        tangentMode: 34
      - serializedVersion: 2
        time: 19.933332
        value: 55.18
        inSlope: 0.41216195
        outSlope: 0.41216195
        tangentMode: 34
      - serializedVersion: 2
        time: 20.183332
        value: 55.18
        inSlope: 0
        outSlope: 0
        tangentMode: 34
      m_PreInfinity: 2
      m_PostInfinity: 2
      m_RotationOrder: 4
    attribute: m_LocalPosition.z
    path: 
    classID: 4
    script: {fileID: 0}
  m_EulerEditorCurves: []
  m_HasGenericRootTransform: 1
  m_HasMotionFloatCurves: 0
  m_GenerateMotionCurves: 0
  m_Events:
  - time: 20.066668
    functionName: OpenDoors
    data: 
    objectReferenceParameter: {fileID: 0}
    floatParameter: 0
    intParameter: 0
    messageOptions: 0
  - time: 20.066668
    functionName: OpenDoors
    data: 
    objectReferenceParameter: {fileID: 0}
    floatParameter: 0
    intParameter: 0
    messageOptions: 0
