%YAML 1.1
%TAG !u! tag:unity3d.com,2011:
--- !u!114 &11400000
MonoBehaviour:
  m_ObjectHideFlags: 0
  m_PrefabParentObject: {fileID: 0}
  m_PrefabInternal: {fileID: 0}
  m_GameObject: {fileID: 0}
  m_Enabled: 1
  m_EditorHideFlags: 0
  m_Script: {fileID: 11500000, guid: 78b2425a2284af743826c689403a4924, type: 3}
  m_Name: World Position Behind From Depth
  m_EditorClassIdentifier: 
  m_functionInfo: "// Made with Amplify Shader Editor\n// Available at the Unity Asset
    Store - http://u3d.as/y3X \n/*ASEBEGIN\nVersion=15101\n189;95;1906;1103;1560;483.5;1;True;False\nNode;AmplifyShaderEditor.ScreenDepthNode;5;-995,-218.5;Float;False;0;True;1;0;FLOAT4;0,0,0,0;False;1;FLOAT;0\nNode;AmplifyShaderEditor.SimpleMultiplyOpNode;8;-503,-109.5;Float;False;2;2;0;FLOAT;0;False;1;FLOAT3;0,0,0;False;1;FLOAT3;0\nNode;AmplifyShaderEditor.SimpleAddOpNode;9;-266,-0.5;Float;False;2;2;0;FLOAT3;0,0,0;False;1;FLOAT3;0,0,0;False;1;FLOAT3;0\nNode;AmplifyShaderEditor.SurfaceDepthNode;7;-1049,-136.5;Float;False;0;1;0;FLOAT3;0,0,0;False;1;FLOAT;0\nNode;AmplifyShaderEditor.SimpleSubtractOpNode;4;-707,62.5;Float;False;2;0;FLOAT3;0,0,0;False;1;FLOAT3;0,0,0;False;1;FLOAT3;0\nNode;AmplifyShaderEditor.WorldPosInputsNode;1;-973,-24.5;Float;False;0;4;FLOAT3;0;FLOAT;1;FLOAT;2;FLOAT;3\nNode;AmplifyShaderEditor.WorldSpaceCameraPos;3;-1046,179.5;Float;False;0;4;FLOAT3;0;FLOAT;1;FLOAT;2;FLOAT;3\nNode;AmplifyShaderEditor.SimpleDivideOpNode;6;-693,-192.5;Float;False;2;0;FLOAT;0;False;1;FLOAT;0;False;1;FLOAT;0\nNode;AmplifyShaderEditor.FunctionOutput;0;0,0;Float;False;True;Pos;0;False;1;0;FLOAT3;0,0,0;False;1;FLOAT3;0\nWireConnection;8;0;6;0\nWireConnection;8;1;4;0\nWireConnection;9;0;8;0\nWireConnection;9;1;3;0\nWireConnection;4;0;1;0\nWireConnection;4;1;3;0\nWireConnection;6;0;5;0\nWireConnection;6;1;7;0\nWireConnection;0;0;9;0\nASEEND*/\n//CHKSM=3CEF14753B5CFB2DA1D0185A61A70D2577D2D44A"
  m_functionName: 
  m_description: 
  m_additionalIncludes:
    m_additionalIncludes: []
    m_outsideIncludes: []
  m_additionalPragmas:
    m_additionalPragmas: []
    m_outsidePragmas: []
  m_nodeCategory: 3
  m_customNodeCategory: 
  m_previewPosition: 0
