%YAML 1.1
%TAG !u! tag:unity3d.com,2011:
--- !u!114 &11400000
MonoBehaviour:
  m_ObjectHideFlags: 0
  m_PrefabParentObject: {fileID: 0}
  m_PrefabInternal: {fileID: 0}
  m_GameObject: {fileID: 0}
  m_Enabled: 1
  m_EditorHideFlags: 0
  m_Script: {fileID: 11500000, guid: 78b2425a2284af743826c689403a4924, type: 3}
  m_Name: Convolve Texture
  m_EditorClassIdentifier: 
  m_functionInfo: "// Made with Amplify Shader Editor\n// Available at the Unity Asset
    Store - http://u3d.as/y3X \n/*ASEBEGIN\nVersion=15201\n-3;490;1906;1103;3118.643;517.3942;1.235126;True;False\nNode;AmplifyShaderEditor.CommentaryNode;14;-2583.176,259.6146;Float;False;812.1001;510.8;Matrices;6;16;17;15;12;11;10;;1,1,1,1;0;0\nNode;AmplifyShaderEditor.BreakToComponentsNode;16;-2087.276,469.5143;Float;False;FLOAT3;1;0;FLOAT3;0,0,0;False;16;FLOAT;0;FLOAT;1;FLOAT;2;FLOAT;3;FLOAT;4;FLOAT;5;FLOAT;6;FLOAT;7;FLOAT;8;FLOAT;9;FLOAT;10;FLOAT;11;FLOAT;12;FLOAT;13;FLOAT;14;FLOAT;15\nNode;AmplifyShaderEditor.FunctionInput;4;-2465.576,-138.8854;Float;False;Middle
    Left;3;3;False;1;0;FLOAT3;0,0,0;False;1;FLOAT3;0\nNode;AmplifyShaderEditor.FunctionInput;5;-2011.876,-131.0854;Float;False;Middle
    Right;3;5;False;1;0;FLOAT3;0,0,0;False;1;FLOAT3;0\nNode;AmplifyShaderEditor.BreakToComponentsNode;17;-2078.177,619.0142;Float;False;FLOAT3;1;0;FLOAT3;0,0,0;False;16;FLOAT;0;FLOAT;1;FLOAT;2;FLOAT;3;FLOAT;4;FLOAT;5;FLOAT;6;FLOAT;7;FLOAT;8;FLOAT;9;FLOAT;10;FLOAT;11;FLOAT;12;FLOAT;13;FLOAT;14;FLOAT;15\nNode;AmplifyShaderEditor.FunctionInput;2;-2247.176,-316.9854;Float;False;Top
    Center;3;1;False;1;0;FLOAT3;0,0,0;False;1;FLOAT3;0\nNode;AmplifyShaderEditor.SimpleMultiplyOpNode;22;-1325.475,201.7144;Float;False;2;2;0;FLOAT3;0,0,0;False;1;FLOAT;0;False;1;FLOAT3;0\nNode;AmplifyShaderEditor.FunctionInput;10;-2244.576,309.6142;Float;False;Row0;3;9;False;1;0;FLOAT3;0,0,0;False;1;FLOAT3;0\nNode;AmplifyShaderEditor.FunctionInput;1;-2468.176,-329.9853;Float;False;Top
    Left;3;0;False;1;0;FLOAT3;0,0,0;False;1;FLOAT3;0\nNode;AmplifyShaderEditor.FunctionInput;6;-2462.976,26.21452;Float;False;Bottom
    Left;3;6;False;1;0;FLOAT3;0,0,0;False;1;FLOAT3;0\nNode;AmplifyShaderEditor.SimpleMultiplyOpNode;20;-1140.875,5.414336;Float;False;2;2;0;FLOAT3;0,0,0;False;1;FLOAT;0;False;1;FLOAT3;0\nNode;AmplifyShaderEditor.FunctionInput;3;-2010.576,-309.1854;Float;False;Top
    Right;3;2;False;1;0;FLOAT3;0,0,0;False;1;FLOAT3;0\nNode;AmplifyShaderEditor.FunctionInput;11;-2238.076,463.0143;Float;False;Row1;3;10;False;1;0;FLOAT3;0,0,0;False;1;FLOAT3;0\nNode;AmplifyShaderEditor.SimpleMultiplyOpNode;25;-1329.375,390.2145;Float;False;2;2;0;FLOAT3;0,0,0;False;1;FLOAT;0;False;1;FLOAT3;0\nNode;AmplifyShaderEditor.FunctionInput;7;-2019.676,34.01456;Float;False;Bottom
    Right;3;8;False;1;0;FLOAT3;0,0,0;False;1;FLOAT3;0\nNode;AmplifyShaderEditor.FunctionInput;12;-2240.676,617.7141;Float;False;Row2;3;11;False;1;0;FLOAT3;0,0,0;False;1;FLOAT3;0\nNode;AmplifyShaderEditor.FunctionInput;8;-2251.075,30.11454;Float;False;Bottom
    Center;3;7;False;1;0;FLOAT3;0,0,0;False;1;FLOAT3;0\nNode;AmplifyShaderEditor.SimpleAddOpNode;35;-820.3699,373.959;Float;False;2;2;0;FLOAT3;0,0,0;False;1;FLOAT3;0,0,0;False;1;FLOAT3;0\nNode;AmplifyShaderEditor.SimpleAddOpNode;33;-822.1293,99.48732;Float;False;2;2;0;FLOAT3;0,0,0;False;1;FLOAT3;0,0,0;False;1;FLOAT3;0\nNode;AmplifyShaderEditor.SimpleMultiplyOpNode;18;-1508.776,9.314312;Float;False;2;2;0;FLOAT3;0,0,0;False;1;FLOAT;0;False;1;FLOAT3;0\nNode;AmplifyShaderEditor.SimpleMultiplyOpNode;21;-1512.675,208.2144;Float;False;2;2;0;FLOAT3;0,0,0;False;1;FLOAT;0;False;1;FLOAT3;0\nNode;AmplifyShaderEditor.SimpleMultiplyOpNode;23;-1123.975,200.4143;Float;False;2;2;0;FLOAT3;0,0,0;False;1;FLOAT;0;False;1;FLOAT3;0\nNode;AmplifyShaderEditor.SimpleMultiplyOpNode;24;-1506.176,401.9143;Float;False;2;2;0;FLOAT3;0,0,0;False;1;FLOAT;0;False;1;FLOAT3;0\nNode;AmplifyShaderEditor.SimpleAddOpNode;39;-467.0197,143.7303;Float;False;2;2;0;FLOAT3;0,0,0;False;1;FLOAT3;0,0,0;False;1;FLOAT3;0\nNode;AmplifyShaderEditor.SimpleAddOpNode;38;-642.9629,597.6638;Float;False;2;2;0;FLOAT3;0,0,0;False;1;FLOAT3;0,0,0;False;1;FLOAT3;0\nNode;AmplifyShaderEditor.SimpleAddOpNode;40;-313.2172,415.5453;Float;False;2;2;0;FLOAT3;0,0,0;False;1;FLOAT3;0,0,0;False;1;FLOAT3;0\nNode;AmplifyShaderEditor.FunctionInput;9;-2251.075,-128.4854;Float;False;Middle
    Center;3;4;False;1;0;FLOAT3;0,0,0;False;1;FLOAT3;0\nNode;AmplifyShaderEditor.SimpleMultiplyOpNode;26;-1127.875,399.3145;Float;False;2;2;0;FLOAT3;0,0,0;False;1;FLOAT;0;False;1;FLOAT3;0\nNode;AmplifyShaderEditor.SimpleAddOpNode;36;-651.76,272.1689;Float;False;2;2;0;FLOAT3;0,0,0;False;1;FLOAT3;0,0,0;False;1;FLOAT3;0\nNode;AmplifyShaderEditor.SimpleAddOpNode;37;-813.3322,690.6567;Float;False;2;2;0;FLOAT3;0,0,0;False;1;FLOAT3;0,0,0;False;1;FLOAT3;0\nNode;AmplifyShaderEditor.SimpleAddOpNode;34;-658.7977,-0.5428276;Float;False;2;2;0;FLOAT3;0,0,0;False;1;FLOAT3;0,0,0;False;1;FLOAT3;0\nNode;AmplifyShaderEditor.SimpleMultiplyOpNode;19;-1328.076,4.114324;Float;False;2;2;0;FLOAT3;0,0,0;False;1;FLOAT;0;False;1;FLOAT3;0\nNode;AmplifyShaderEditor.BreakToComponentsNode;15;-2085.976,314.7493;Float;False;FLOAT3;1;0;FLOAT3;0,0,0;False;16;FLOAT;0;FLOAT;1;FLOAT;2;FLOAT;3;FLOAT;4;FLOAT;5;FLOAT;6;FLOAT;7;FLOAT;8;FLOAT;9;FLOAT;10;FLOAT;11;FLOAT;12;FLOAT;13;FLOAT;14;FLOAT;15\nNode;AmplifyShaderEditor.FunctionOutput;0;0,0;Float;False;True;Output;0;True;1;0;FLOAT3;0,0,0;False;1;FLOAT3;0\nWireConnection;16;0;11;0\nWireConnection;17;0;12;0\nWireConnection;22;0;9;0\nWireConnection;22;1;16;1\nWireConnection;20;0;3;0\nWireConnection;20;1;15;2\nWireConnection;25;0;8;0\nWireConnection;25;1;17;1\nWireConnection;35;0;22;0\nWireConnection;35;1;21;0\nWireConnection;33;0;19;0\nWireConnection;33;1;18;0\nWireConnection;18;0;1;0\nWireConnection;18;1;15;0\nWireConnection;21;0;4;0\nWireConnection;21;1;16;0\nWireConnection;23;0;5;0\nWireConnection;23;1;16;2\nWireConnection;24;0;6;0\nWireConnection;24;1;17;0\nWireConnection;39;0;34;0\nWireConnection;39;1;36;0\nWireConnection;38;0;26;0\nWireConnection;38;1;37;0\nWireConnection;40;0;39;0\nWireConnection;40;1;38;0\nWireConnection;26;0;7;0\nWireConnection;26;1;17;2\nWireConnection;36;0;23;0\nWireConnection;36;1;35;0\nWireConnection;37;0;25;0\nWireConnection;37;1;24;0\nWireConnection;34;0;20;0\nWireConnection;34;1;33;0\nWireConnection;19;0;2;0\nWireConnection;19;1;15;1\nWireConnection;15;0;10;0\nWireConnection;0;0;40;0\nASEEND*/\n//CHKSM=178049C84054A35E2E378354F96FC035CEEA7A48"
  m_functionName: 
  m_description: 
  m_additionalIncludes:
    m_additionalIncludes: []
    m_outsideIncludes: []
  m_additionalPragmas:
    m_additionalPragmas: []
    m_outsidePragmas: []
  m_nodeCategory: 3
  m_customNodeCategory: 
  m_previewPosition: 0
