%YAML 1.1
%TAG !u! tag:unity3d.com,2011:
--- !u!114 &11400000
MonoBehaviour:
  m_ObjectHideFlags: 0
  m_PrefabParentObject: {fileID: 0}
  m_PrefabInternal: {fileID: 0}
  m_GameObject: {fileID: 0}
  m_Enabled: 1
  m_EditorHideFlags: 0
  m_Script: {fileID: 11500000, guid: 78b2425a2284af743826c689403a4924, type: 3}
  m_Name: Edge Detect
  m_EditorClassIdentifier: 
  m_functionInfo: "// Made with Amplify Shader Editor\n// Available at the Unity Asset
    Store - http://u3d.as/y3X \n/*ASEBEGIN\nVersion=15201\n513;592;1785;1001;3404.616;397.4504;1.29853;True;True\nNode;AmplifyShaderEditor.Vector3Node;18;-2712.77,516.2653;Float;True;Constant;_Vector8;Vector
    8;8;0;Create;True;0;0;False;0;1,0,-1;0,0,0;0;4;FLOAT3;0;FLOAT;1;FLOAT;2;FLOAT;3\nNode;AmplifyShaderEditor.StaticSwitch;38;-580.3007,187.1047;Float;False;Property;_UseFlatColor;Use
    Flat Color;7;0;Create;True;0;0;False;0;0;1;0;True;;Toggle;2;Key0;Key1;9;1;COLOR;0,0,0,0;False;0;COLOR;0,0,0,0;False;2;COLOR;0,0,0,0;False;3;COLOR;0,0,0,0;False;4;COLOR;0,0,0,0;False;5;COLOR;0,0,0,0;False;6;COLOR;0,0,0,0;False;7;COLOR;0,0,0,0;False;8;COLOR;0,0,0,0;False;1;COLOR;0\nNode;AmplifyShaderEditor.GrabScreenPosition;113;-3577.174,-354.6733;Float;False;0;0;5;FLOAT4;0;FLOAT;1;FLOAT;2;FLOAT;3;FLOAT;4\nNode;AmplifyShaderEditor.Vector3Node;20;-2277.545,590.408;Float;True;Constant;_Vector10;Vector
    10;8;0;Create;True;0;0;False;0;1,0,-1;0,0,0;0;4;FLOAT3;0;FLOAT;1;FLOAT;2;FLOAT;3\nNode;AmplifyShaderEditor.Vector3Node;22;-2222.954,-639.4399;Float;True;Constant;_Vector12;Vector
    12;8;0;Create;True;0;0;False;0;-1,-2,-1;0,0,0;0;4;FLOAT3;0;FLOAT;1;FLOAT;2;FLOAT;3\nNode;AmplifyShaderEditor.ComponentMaskNode;350;-3305.541,-292.5934;Float;False;True;True;False;False;1;0;FLOAT4;0,0,0,0;False;1;FLOAT2;0\nNode;AmplifyShaderEditor.FunctionNode;365;-1946.34,-365.499;Float;False;Convolve
    Texture;-1;;73;e9da5a0cbfe65ff4fb78719fa40cabed;0;12;1;FLOAT3;0,0,0;False;2;FLOAT3;0,0,0;False;3;FLOAT3;0,0,0;False;4;FLOAT3;0,0,0;False;9;FLOAT3;0,0,0;False;5;FLOAT3;0,0,0;False;6;FLOAT3;0,0,0;False;8;FLOAT3;0,0,0;False;7;FLOAT3;0,0,0;False;10;FLOAT3;0,0,0;False;11;FLOAT3;0,0,0;False;12;FLOAT3;0,0,0;False;1;FLOAT3;0\nNode;AmplifyShaderEditor.SimpleSubtractOpNode;3;-3743.244,-51.01764;Float;False;2;0;FLOAT;0;False;1;FLOAT;1;False;1;FLOAT;0\nNode;AmplifyShaderEditor.ScreenColorNode;35;-857.3008,187.1047;Float;False;Global;_GrabScreen0;Grab
    Screen 0;8;0;Create;True;0;0;False;0;Object;-1;False;False;1;0;FLOAT2;0,0;False;5;COLOR;0;FLOAT;1;FLOAT;2;FLOAT;3;FLOAT;4\nNode;AmplifyShaderEditor.FunctionNode;397;-2695.424,167.5247;Float;False;Normal
    Depth Combine;0;;79;694be525ca9781c44913d169a65d1653;0;1;1;FLOAT2;0,0;False;1;FLOAT3;0\nNode;AmplifyShaderEditor.FunctionNode;396;-2696.424,-275.4753;Float;False;Normal
    Depth Combine;0;;78;694be525ca9781c44913d169a65d1653;0;1;1;FLOAT2;0,0;False;1;FLOAT3;0\nNode;AmplifyShaderEditor.FunctionNode;399;-2698.424,349.5247;Float;False;Normal
    Depth Combine;0;;81;694be525ca9781c44913d169a65d1653;0;1;1;FLOAT2;0,0;False;1;FLOAT3;0\nNode;AmplifyShaderEditor.FunctionNode;398;-2697.424,-193.4753;Float;False;Normal
    Depth Combine;0;;80;694be525ca9781c44913d169a65d1653;0;1;1;FLOAT2;0,0;False;1;FLOAT3;0\nNode;AmplifyShaderEditor.FunctionNode;395;-2695.424,251.5247;Float;False;Normal
    Depth Combine;0;;77;694be525ca9781c44913d169a65d1653;0;1;1;FLOAT2;0,0;False;1;FLOAT3;0\nNode;AmplifyShaderEditor.FunctionNode;392;-2697.424,76.52466;Float;False;Normal
    Depth Combine;0;;74;694be525ca9781c44913d169a65d1653;0;1;1;FLOAT2;0,0;False;1;FLOAT3;0\nNode;AmplifyShaderEditor.SimpleMultiplyOpNode;6;-3375.344,-87.41776;Float;False;2;2;0;FLOAT2;0,0;False;1;FLOAT;0;False;1;FLOAT2;0\nNode;AmplifyShaderEditor.FunctionNode;394;-2693.424,-112.4753;Float;False;Normal
    Depth Combine;0;;76;694be525ca9781c44913d169a65d1653;0;1;1;FLOAT2;0,0;False;1;FLOAT3;0\nNode;AmplifyShaderEditor.FunctionNode;393;-2691.424,-355.4753;Float;False;Normal
    Depth Combine;0;;75;694be525ca9781c44913d169a65d1653;0;1;1;FLOAT2;0,0;False;1;FLOAT3;0\nNode;AmplifyShaderEditor.DynamicAppendNode;5;-3550.843,-127.7178;Float;False;FLOAT2;4;0;FLOAT;0;False;1;FLOAT;0;False;2;FLOAT;0;False;3;FLOAT;0;False;1;FLOAT2;0\nNode;AmplifyShaderEditor.FunctionInput;41;-499.3007,427.1047;Float;False;Edge
    Color;5;1;False;1;0;COLOR;1,1,1,0;False;1;COLOR;0\nNode;AmplifyShaderEditor.FunctionInput;39;-813.3007,420.1047;Float;False;Scene
    Color;5;2;False;1;0;COLOR;1,1,1,0;False;1;COLOR;0\nNode;AmplifyShaderEditor.SimpleAddOpNode;30;-1048.384,-137.7655;Float;False;2;2;0;FLOAT3;0,0,0;False;1;FLOAT3;0,0,0;False;1;FLOAT3;0\nNode;AmplifyShaderEditor.SimpleSubtractOpNode;2;-3736.744,-169.3176;Float;False;2;0;FLOAT;0;False;1;FLOAT;1;False;1;FLOAT;0\nNode;AmplifyShaderEditor.ScreenParams;1;-3972.044,-204.4176;Float;False;0;5;FLOAT4;0;FLOAT;1;FLOAT;2;FLOAT;3;FLOAT;4\nNode;AmplifyShaderEditor.Vector3Node;21;-2694.062,-697.8837;Float;True;Constant;_Vector11;Vector
    11;8;0;Create;True;0;0;False;0;1,2,1;0,0,0;0;4;FLOAT3;0;FLOAT;1;FLOAT;2;FLOAT;3\nNode;AmplifyShaderEditor.Vector3Node;19;-2481.662,544.7093;Float;True;Constant;_Vector9;Vector
    9;8;0;Create;True;0;0;False;0;2,0,-2;0,0,0;0;4;FLOAT3;0;FLOAT;1;FLOAT;2;FLOAT;3\nNode;AmplifyShaderEditor.Vector3Node;23;-2480.212,-668.0018;Float;True;Constant;_Vector13;Vector
    13;8;0;Create;True;0;0;False;0;0,0,0;0,0,0;0;4;FLOAT3;0;FLOAT;1;FLOAT;2;FLOAT;3\nNode;AmplifyShaderEditor.LengthOpNode;31;-845.0134,-135.5089;Float;False;1;0;FLOAT3;0,0,0;False;1;FLOAT;0\nNode;AmplifyShaderEditor.FunctionInput;4;-3546.945,49.0824;Float;False;Edge
    Size;1;3;False;1;0;FLOAT;1;False;1;FLOAT;0\nNode;AmplifyShaderEditor.FunctionNode;283;-3104.945,-112.1178;Float;False;Sample
    Neighbors;-1;;71;89f9a4b3873522b48b3d5ff98686a43f;0;2;31;FLOAT2;0,0;False;1;FLOAT2;0,0;False;9;FLOAT2;0;FLOAT2;39;FLOAT2;33;FLOAT2;34;FLOAT2;40;FLOAT2;38;FLOAT2;35;FLOAT2;36;FLOAT2;37\nNode;AmplifyShaderEditor.ClampOpNode;32;-622.7718,-134.5645;Float;False;3;0;FLOAT;0;False;1;FLOAT;0;False;2;FLOAT;1;False;1;FLOAT;0\nNode;AmplifyShaderEditor.FunctionNode;364;-1961.062,225.2205;Float;False;Convolve
    Texture;-1;;72;e9da5a0cbfe65ff4fb78719fa40cabed;0;12;1;FLOAT3;0,0,0;False;2;FLOAT3;0,0,0;False;3;FLOAT3;0,0,0;False;4;FLOAT3;0,0,0;False;9;FLOAT3;0,0,0;False;5;FLOAT3;0,0,0;False;6;FLOAT3;0,0,0;False;8;FLOAT3;0,0,0;False;7;FLOAT3;0,0,0;False;10;FLOAT3;0,0,0;False;11;FLOAT3;0,0,0;False;12;FLOAT3;0,0,0;False;1;FLOAT3;0\nNode;AmplifyShaderEditor.SimpleMultiplyOpNode;28;-1428.269,-377.1162;Float;False;2;2;0;FLOAT3;0,0,0;False;1;FLOAT3;0,0,0;False;1;FLOAT3;0\nNode;AmplifyShaderEditor.PowerNode;33;-414.3007,-120.8953;Float;False;2;0;FLOAT;0;False;1;FLOAT;0;False;1;FLOAT;0\nNode;AmplifyShaderEditor.SimpleMultiplyOpNode;29;-1464.369,218.3476;Float;False;2;2;0;FLOAT3;0,0,0;False;1;FLOAT3;0,0,0;False;1;FLOAT3;0\nNode;AmplifyShaderEditor.LerpOp;40;-164.3007,125.1047;Float;False;3;0;COLOR;0,0,0,0;False;1;COLOR;0,0,0,0;False;2;FLOAT;0;False;1;COLOR;0\nNode;AmplifyShaderEditor.FunctionInput;34;-636.2809,6.547275;Float;False;Edge
    Power;1;0;False;1;0;FLOAT;5;False;1;FLOAT;0\nNode;AmplifyShaderEditor.FunctionOutput;0;56.86411,10;Float;False;True;Output;0;False;1;0;COLOR;0,0,0,0;False;1;COLOR;0\nWireConnection;38;1;35;0\nWireConnection;38;0;39;0\nWireConnection;350;0;113;0\nWireConnection;365;1;393;0\nWireConnection;365;2;396;0\nWireConnection;365;3;398;0\nWireConnection;365;6;397;0\nWireConnection;365;8;395;0\nWireConnection;365;7;399;0\nWireConnection;365;10;21;0\nWireConnection;365;11;23;0\nWireConnection;365;12;22;0\nWireConnection;3;0;1;4\nWireConnection;397;1;283;35\nWireConnection;396;1;283;39\nWireConnection;399;1;283;37\nWireConnection;398;1;283;33\nWireConnection;395;1;283;36\nWireConnection;392;1;283;38\nWireConnection;6;0;5;0\nWireConnection;6;1;4;0\nWireConnection;394;1;283;34\nWireConnection;393;1;283;0\nWireConnection;5;0;2;0\nWireConnection;5;1;3;0\nWireConnection;30;0;28;0\nWireConnection;30;1;29;0\nWireConnection;2;0;1;3\nWireConnection;31;0;30;0\nWireConnection;283;31;350;0\nWireConnection;283;1;6;0\nWireConnection;32;0;31;0\nWireConnection;364;1;393;0\nWireConnection;364;3;398;0\nWireConnection;364;4;394;0\nWireConnection;364;5;392;0\nWireConnection;364;6;397;0\nWireConnection;364;7;399;0\nWireConnection;364;10;18;0\nWireConnection;364;11;19;0\nWireConnection;364;12;20;0\nWireConnection;28;0;365;0\nWireConnection;28;1;365;0\nWireConnection;33;0;32;0\nWireConnection;33;1;34;0\nWireConnection;29;0;364;0\nWireConnection;29;1;364;0\nWireConnection;40;0;38;0\nWireConnection;40;1;41;0\nWireConnection;40;2;33;0\nWireConnection;0;0;40;0\nASEEND*/\n//CHKSM=D60F2B488EBCEE3B8EF63A499C83C2BBC4536B2C"
  m_functionName: 
  m_description: 
  m_additionalIncludes:
    m_additionalIncludes: []
    m_outsideIncludes: []
  m_additionalPragmas:
    m_additionalPragmas: []
    m_outsidePragmas: []
  m_nodeCategory: 3
  m_customNodeCategory: 
  m_previewPosition: 0
